To: roberto@rtisistemas.com.br
Subject: Correio de Contatos WebSite
Message-ID: <debf57d2a34205d89c5dbc9f6babcf82@127.0.0.1>
Date: Mon, 07 Aug 2017 20:30:31 +0000
From: Intercom <contato@escritoriointercom.com.br>
MIME-Version: 1.0
Content-Type: text/html; charset=utf-8
Content-Transfer-Encoding: quoted-printable

<!DOCTYPE html>
<html lang=3D"en">
<head>
    <meta charset=3D"utf-8">
    <meta http-equiv=3D"X-UA-Compatible" content=3D"IE=3Dedge">
</head>
<body>
    <H1>Contato realizado pelo Site.</H1>
    <br> =20
    <p><strong>Nome =3D Murilo Gon=C3=A7alves Jacinto</strong></p>
    <p><strong>E-mail =3D murilo@rtisistemas.com.br</strong></p>
    <br>
    <H3>Teste</H3>
    <hr>
    <p><strong>Expected response code 250 but got code &quot;530&quot;, wit=
h message &quot;530 5.7.1 Authentication required
&quot;</strong></p>
    <br>
    <br>
</body>
</html>
