To: contato@escritoriointercom.com.br
Subject: Correio de Contatos WebSite
Message-ID: <f3d4761e10877a34f21da0b2c7191ead@127.0.0.1>
Date: Mon, 07 Aug 2017 21:35:45 +0000
From: Intercom <contato@escritoriointercom.com.br>
MIME-Version: 1.0
Content-Type: text/html; charset=utf-8
Content-Transfer-Encoding: quoted-printable

<!DOCTYPE html>
<html lang=3D"en">
<head>
    <meta charset=3D"utf-8">
    <meta http-equiv=3D"X-UA-Compatible" content=3D"IE=3Dedge">
</head>
<body>
    <H1>Contato realizado pelo Site.</H1>
    <br> =20
    <p><strong>Nome =3D Murilo Gon=C3=A7alves Jacinto</strong></p>
    <p><strong>E-mail =3D murilo@rtisistemas.com.br</strong></p>
    <br>
    <H3>Teste</H3>
    <hr>
    <p><strong>#26cda4
#26cda4
#26cda4
#26cda4</strong></p>
    <br>
    <br>
</body>
</html>
